MAX_MOVES=9
STARTPOS=2,2
map[0][0].bitfield=0
map[0][1].bitfield=0
map[0][2].bitfield=0
map[0][3].bitfield=0
map[0][4].bitfield=0
map[0][5].bitfield=0
map[0][6].bitfield=0
map[0][7].bitfield=0
map[1][0].bitfield=0
map[1][1].bitfield=0
map[1][2].bitfield=0
map[1][3].bitfield=65545
map[1][4].bitfield=65547
map[1][5].bitfield=65539
map[1][6].bitfield=65546
map[1][7].bitfield=0
map[2][0].bitfield=0
map[2][1].bitfield=0
map[2][2].bitfield=65537
map[2][3].bitfield=65542
map[2][4].bitfield=65548
map[2][5].bitfield=66560
map[2][6].bitfield=65804
map[2][7].bitfield=0
map[3][0].bitfield=0
map[3][1].bitfield=0
map[3][2].bitfield=0
map[3][3].bitfield=0
map[3][4].bitfield=65541
map[3][5].bitfield=65607
map[3][6].bitfield=65542
map[3][7].bitfield=0
map[4][0].bitfield=0
map[4][1].bitfield=0
map[4][2].bitfield=0
map[4][3].bitfield=0
map[4][4].bitfield=0
map[4][5].bitfield=0
map[4][6].bitfield=0
map[4][7].bitfield=0
COUPLED_SWITCH_ENABLED=0
STATIC_PORTALS_ENABLED=0
DYNAMIC_PORTALS_ENABLED=0
